{
    "total_items": 874,
    "total_pages": 292,
    "page_number": 1,
    "size": 3,
    "first_page": true,
    "last_page": false,
    "empty": false,
    "contents": [
        {
            "id": "2a3483ea-8966-4f50-9dc3-7bafa1e5c623",
            "name": "1625 Independent People",
            "description": "<h1>About Us</h1>\n\n<p>1625 Independent People works with young people who are homeless, leaving care or at risk of homelessness in Bristol and the South West.</p>\n\n<p>Our services ranges from signposting or advice, to intensive one-to one support, supported housing, group activities and peer support.</p>\n\n<p>As well as providing safe, stable accommodation, we provide practical and emotional support to ensure vulnerable young people can build healthy relationships, develop independent living skills and can access jobs and training.</p>\n\n<p>We nurture the existing skills, strengths and talent in young people, to show them they can believe in themselves, and that they have the skills to thrive as an independent adult.</p>\n\n<p>Our staff are trained to provide emotional support, as young people often have histories that involve trauma and disrupted family life. We know that positive relationships based on trust, mutual respect and dignity is the key tool for change for young people.</p>\n\n<h1>Get Help</h1>\n\n<p>If you are a young person who is homeless, or at risk of becoming homeless, we can help you.</p>\n\n<p>If you are in Bristol, please click the relevant box below, and we will get back to you as soon as we can.</p>\n\n<p>If you need help and are based in South Glos, please call 0117 969 5763 on Monday \u2013 Friday 9 \u2013 4.30pm.</p>\n\n<p>Or you can \u2018drop in\u2019 at the Patchway office on a Tuesday and Thursday from 2pm \u2013 4.30pm at 23 The Parade, Coniston Road, Patchway, Bristol, BS34 5LP.</p>",
            "url": "http://1625ip.co.uk",
            "email": "enquiries@1625ip.co.uk",
            "status": "active",
            "assured_date": "2025-09-02",
            "organization": {
                "description": "1625 Independent People works with young people who are homeless, leaving care or at risk of homelessness in Bristol and the South West.\n\nOur services ranges from signposting or advice, to intensive one-to one support, supported housing, group activities and peer support.",
                "id": "42d3fa20-b36d-4822-b5dc-68029911caaf",
                "name": "1625 Independent People",
                "uri": "http://1625ip.co.uk",
                "website": "http://1625ip.co.uk"
            },
            "pc_metadata": {
                "assured_by": "oliviaplenty@thecareforum.org.uk",
                "date_assured": "2025-09-02",
                "date_created": "2020-06-05",
                "date_modified": "2025-09-02"
            },
            "pc_targetAudience": [
                {
                    "audienceType": "Homeless",
                    "id": "Homeless"
                },
                {
                    "audienceType": "Care leavers",
                    "id": "80425"
                }
            ],
            "assurer_email": "oliviaplenty@thecareforum.org.uk",
            "last_modified": "2025-09-02T12:06:15.654",
            "maximum_age": -1,
            "minimum_age": -1,
            "organization_id": "42d3fa20-b36d-4822-b5dc-68029911caaf"
        },
        {
            "id": "93657689-252d-5a77-de87-42ca43452b0e",
            "name": "2 Way St Bristol",
            "description": "<p>2Way St is a self funding support group for users/carers that have experience emotional distress or mental health, its a space to explore issues affecting us.</p>\n\n<p>They have a therapy room&nbsp;open for anyone interested, with competitive rates of hire cost offering a local beautiful room with portable massage table, the room is ready for counselling sessions, 1-1 sessions or small meetings as well as massage, reiki and all other healing skills.</p>\n\n<p>Please get in touch for further information or to request a booking form either via <a href=\"https://www.facebook.com/2waystbristol/?ref=page_internal\" target=\"\">Facebook</a> or&nbsp;07597922718</p>\n\n<p>Prices:</p>\n\n<p>\u00a310 a hour for one session</p>\n\n<p>\u00a37 a hour per session if you are looking to book more than one session.</p>\n\n<p>Twitter page:&nbsp;<a href=\"https://twitter.com/2waystAt2wayst\">https://twitter.com/2waystAt2wayst</a></p>",
            "url": "https://www.facebook.com/2waystbristol/?ref=page_internal",
            "email": "our2wayst@hotmail.com",
            "status": "active",
            "assured_date": "2025-07-29",
            "organization": {
                "description": "2Way St is a self funding support group for users/carers that have experience emotional distress or mental health, its a space to explore issues affecting us.",
                "id": "0b8a9adf-e155-1f77-c48d-a339105d6722",
                "name": "2 Way St Bristol",
                "uri": "https://www.facebook.com/2waystbristol/?ref=page_internal",
                "website": "https://www.facebook.com/2waystbristol/?ref=page_internal"
            },
            "pc_metadata": {
                "assured_by": "oliviaplenty@thecareforum.org.uk",
                "date_assured": "2025-07-29",
                "date_created": "2022-01-20",
                "date_modified": "2025-07-29"
            },
            "assurer_email": "oliviaplenty@thecareforum.org.uk",
            "last_modified": "2025-07-29T13:42:25.307",
            "maximum_age": -1,
            "minimum_age": -1,
            "organization_id": "0b8a9adf-e155-1f77-c48d-a339105d6722"
        },
        {
            "id": "3121dd2f-3900-4c90-b529-4c265f026d6f",
            "name": "A Picture of Health",
            "description": "<p>Easy Read information on this website has been developed either; locally, nationally or from other NHS areas and is shared between many specialist clinical networks.&nbsp;These specialist networks have collected these examples to share with you, for you to adapt or use.</p>",
            "url": "https://www.nhs.uk/",
            "email": "Unknown-17774709035808669303521709054@noemail.invalid",
            "status": "active",
            "assured_date": "2025-07-09",
            "organization": {
                "description": "The National Health Service (NHS) is the umbrella term for the publicly-funded healthcare systems of the United Kingdom. Contact details for individual services will be in their individual pages.",
                "id": "a117371a-6591-42d6-ea0a-d89a50b10d40",
                "name": "NHS",
                "uri": "https://www.nhs.uk/",
                "website": "https://www.nhs.uk/"
            },
            "pc_metadata": {
                "assured_by": "oliviaplenty@thecareforum.org.uk",
                "date_assured": "2025-07-09",
                "date_created": "2020-06-05",
                "date_modified": "2025-07-09"
            },
            "assurer_email": "oliviaplenty@thecareforum.org.uk",
            "last_modified": "2025-07-09T14:26:37.918",
            "maximum_age": -1,
            "minimum_age": -1,
            "organization_id": "a117371a-6591-42d6-ea0a-d89a50b10d40"
        }
    ]
}
